{
        "apps": [{
                "name": "hubot",
                "max_memory_restart": "1024M",
                "log_date_format": "YYYY-MM-DD HH:mm:ss SSS",
                "script": "/opt/src/xyubot/current/xyubot/bin/hubot",
                "exec_interpreter": "bash",
                "args": "--name hubot --adapter slack",
                "watch": ["package.json", "external-scripts.json", "scripts/", "hubot-scripts.json", "HUBOT_GITHUB_EVENT_NOTIFIER_TYPES=issues,pull_request,push bin/hubot"],
                "out_file": "/var/log/hubot/app.log",
                "error_file": "/var/log/hubot/err.log",
                "port": "8079",
                "env": {
                        "PORT": "8079",
                        "HUBOT_SLACK_TOKEN": "$SLACK_KEY"
                }
        }]
}
